{
    "KPlugin": {
        "Description": "Displays the open documents in a file tree",
        "Description[az]": "Fayl ağacında açıq sənədləri göstərir",
        "Description[bg]": "Показва отворените документи в йерархичен изглед",
        "Description[ca@valencia]": "Mostra els documents oberts en un arbre de fitxers",
        "Description[ca]": "Mostra els documents oberts en un arbre de fitxers",
        "Description[cs]": "Zobrazí otevřené dokumenty ve stromu souborů",
        "Description[de]": "Zeigt geöffnete Dokumente als Dateibaum an",
        "Description[el]": "Εμφανίζει τα ανοικτά έγγραφα σε ένα δένδρο αρχείων",
        "Description[en_GB]": "Displays the open documents in a file tree",
        "Description[eo]": "Montras la malfermitajn dokumentojn en dosierarbo",
        "Description[es]": "Muestra los documentos abiertos en un árbol de archivos",
        "Description[eu]": "Irekitako dokumentuak fitxategi-zuhaitz batean azaltzen ditu",
        "Description[fi]": "Näyttää avoimet tiedostot tiedostopuuna",
        "Description[fr]": "Affiche les documents ouverts dans une arborescence de fichiers",
        "Description[hu]": "Dokumentumok megjelenítése faszerkezetben",
        "Description[ia]": "Monstra le documentos aperite in un arbore de file",
        "Description[ie]": "Monstrar li apertet documentes quam un árbor de files",
        "Description[it]": "Visualizza i documenti aperti in un albero dei file",
        "Description[ka]": "ღია დოკუმენტების ფაილების ხეში ჩვენება",
        "Description[ko]": "열린 문서를 파일 트리 구조로 표시합니다",
        "Description[nl]": "Toont de geopende documenten in een boomstructuur",
        "Description[pl]": "Wyświetla otwarte dokumenty w drzewie plików",
        "Description[pt]": "Mostra os documentos abertos numa árvore de ficheiros",
        "Description[ru]": "Просмотр открытых документов в дереве папок",
        "Description[sk]": "Zobrazí otvorené dokumenty v strome súborov",
        "Description[sl]": "Prikaže odprte dokumente v drevesu datotek",
        "Description[sv]": "Visar öppna dokument i ett filträd",
        "Description[tr]": "Açık belgeleri bir dosya ağacında görüntüler",
        "Description[uk]": "Показує відкриті документи у ієрархії файлів",
        "Description[vi]": "Hiển thị các tài liệu đang mở trong một cây tệp",
        "Description[x-test]": "xxDisplays the open documents in a file treexx",
        "Description[zh_CN]": "在文件树中显示打开的文档",
        "Name": "Documents Tree",
        "Name[bg]": "Йерархичен изглед на документи",
        "Name[ca@valencia]": "Arbre de documents",
        "Name[ca]": "Arbre de documents",
        "Name[cs]": "Strom dokumentů",
        "Name[en_GB]": "Documents Tree",
        "Name[eo]": "Arbo de Dokumentoj",
        "Name[es]": "Árbol de documentos",
        "Name[fi]": "Tiedostopuu",
        "Name[fr]": "Arborescence des documents",
        "Name[ia]": "Arbore de documentos",
        "Name[it]": "Albero dei documenti",
        "Name[ka]": "დოკუმენტის ხე",
        "Name[nl]": "Documentboomstructuur",
        "Name[pl]": "Drzewo dokumentów",
        "Name[pt]": "Árvore de Documentos",
        "Name[sl]": "Drevo dokumenta",
        "Name[tr]": "Belgeler Ağacı",
        "Name[uk]": "Ієрархія документів",
        "Name[vi]": "Cây tài liệu",
        "Name[x-test]": "xxDocuments Treexx",
        "Name[zh_CN]": "文档树",
        "ServiceTypes": [
            "KTextEditor/Plugin"
        ]
    }
}
